^C:\DEV\CGAL-4.10\BUILD-EXAMPLES\3D_BUILDINGS\CMAKEFILES\3.7.0\COMPILERIDC\CMAKECCOMPILERID.C
C:\WINDOWS\GLOBALIZATION\SORTING\SORTDEFAULT.NLS
C:\PROGRAM FILES (X86)\MICROSOFT VISUAL STUDIO 14.0\VC\BIN\X86_AMD64\1033\CLUI.DLL
C:\WINDOWS\SYSTEM32\TZRES.DLL
