#Command:  
^C:\DEV\CGAL-4.10\BUILD-EXAMPLES\3D_BUILDINGS\CMAKEFILES\3.7.0\COMPILERIDC\DEBUG\CMAKECCOMPILERID.OBJ
C:\USERS\MD.NAZMUL\APPDATA\LOCAL\MICROSOFT\APPLICATIONINSIGHTS\VSTELAIF-312CBD79-9DBB-4C48-A7DA-3CC2A931CB70\5618EC2033CB4E6481ED7801BFE5CC58.TMP
