OFF
223 92 0
390839.209210454 5819139.44550583 63.3166664365738
390839.696530781 5819139.47881548 63.3166664365738
390840.170663427 5819139.59624111 63.3166664365738
390840.617202114 5819139.7942148 63.3166664365738
390841.022578989 5819140.06672121 63.3166664365738
390841.37447688 5819140.40548037 63.3166664365738
390841.66220355 5819140.80019927 63.3166664365738
390841.877016569 5819141.23888457 63.3166664365738
390842.012388953 5819141.70820703 63.3166664365738
390842.064207479 5819142.19390654 63.3166664365738
390842.030897669 5819142.68122535 63.3166664365738
390841.913471625 5819143.15535654 63.3166664365738
390841.715497276 5819143.60189386 63.3166664365738
390841.442989973 5819144.00726951 63.3166664365738
390841.104229714 5819144.35916635 63.3166664365738
390840.709509555 5819144.64689217 63.3166664365738
390840.27082287 5819144.86170458 63.3166664365738
390839.80149893 5819144.9970766 63.3166664365738
390839.315797907 5819145.04889503 63.3166664365738
390838.828477579 5819145.01558539 63.3166664365738
390838.354344929 5819144.89815976 63.3166664365738
390837.907806238 5819144.70018608 63.3166664365738
390837.502429357 5819144.42767967 63.3166664365738
390837.150531458 5819144.08892051 63.3166664365738
390836.862804782 5819143.6942016 63.3166664365738
390836.647991758 5819143.25551631 63.3166664365738
390836.512619371 5819142.78619384 63.3166664365738
390836.460800843 5819142.30049433 63.3166664365738
390836.494110653 5819141.81317551 63.3166664365738
390836.611536701 5819141.33904432 63.3166664365738
390836.809511055 5819140.89250699 63.3166664365738
390837.082018364 5819140.48713134 63.3166664365738
390837.42077863 5819140.1352345 63.3166664365738
390837.815498795 5819139.84750867 63.3166664365738
390838.254185486 5819139.63269627 63.3166664365738
390838.723509429 5819139.49732425 63.3166664365738
390815.735762982 5819148.44079687 42.1651710445045
390828.431339684 5819149.51173184 42.1651710445045
390827.70056851 5819159.18413052 42.1651710445045
390826.89937534 5819159.11338061 42.1651710445045
390815.007335345 5819158.0628411 42.1651710445045
390815.470013012 5819151.95041647 42.1651710445045
390815.571595428 5819150.61467096 42.1651710445045
390815.709759365 5819148.78419027 42.1651710445045
390839.472417208 5819141.30019703 62.9663112147753
390842.642310525 5819139.2217528 56.9908344201612
390842.463589271 5819141.51830449 56.9908344201612
390841.765001736 5819150.49509156 56.9908344201612
390840.997396194 5819160.35875657 56.9908344201612
390838.009768074 5819160.09510961 62.9663112147753
390838.773829664 5819150.27698417 62.9663112147753
390838.009768153 5819160.09510972 62.97
390827.677697949 5819159.18271467 62.4813211653933
390828.429504075 5819149.52207117 62.4813211653933
390839.472417287 5819141.30019715 62.97
390838.773829742 5819150.27698428 62.97
390829.12810201 5819140.54529915 62.9663112147753
390816.404460692 5819139.61676499 62.9663112147753
390816.578267026 5819137.31967496 56.9908344201612
390829.306695696 5819138.24855855 56.9908344201612
390839.651010884 5819139.00345649 56.9908344201612
390815.724575615 5819148.59490288 62.4813211653933
390816.40446077 5819139.61676511 62.97
390829.128102089 5819140.54529927 62.97
390839.695902067 5819139.47788488 33.8699989318848
390839.20858174 5819139.44457522 33.8799989318848
390838.722880716 5819139.49639365 33.8699989318848
390838.253556773 5819139.63176567 33.8699989318848
390837.814870082 5819139.84657807 33.8699989318848
390837.420149917 5819140.13430389 33.8699989318848
390837.081389651 5819140.48620073 33.8699989318848
390836.808882343 5819140.89157639 33.8699989318848
390836.610907989 5819141.33811371 33.8699989318848
390836.493481942 5819141.8122449 33.8699989318848
390836.460172131 5819142.29956372 33.8699989318848
390836.511990658 5819142.78526323 33.8699989318848
390836.647363045 5819143.2545857 33.8699989318848
390836.86217607 5819143.693271 33.8699989318848
390837.149902746 5819144.0879899 33.8699989318848
390837.501800644 5819144.42674907 33.8699989318848
390837.907177524 5819144.69925547 33.8699989318848
390838.353716216 5819144.89722915 33.8699989318848
390838.827848866 5819145.01465478 33.8699989318848
390839.315169193 5819145.04796442 33.8699989318848
390839.800870216 5819144.99614599 33.8699989318848
390840.270194156 5819144.86077397 33.8699989318848
390840.708880841 5819144.64596157 33.8699989318848
390841.103600999 5819144.35823574 33.8699989318848
390841.442361258 5819144.0063389 33.8699989318848
390841.714868561 5819143.60096325 33.8699989318848
390841.912842909 5819143.15442593 33.8699989318848
390842.030268954 5819142.68029474 33.8699989318848
390842.063578764 5819142.19297593 33.8699989318848
390842.011760237 5819141.70727643 33.8699989318848
390841.876387854 5819141.23795396 33.8699989318848
390841.661574835 5819140.79926867 33.8699989318848
390841.373848165 5819140.40454977 33.8699989318848
390841.021950274 5819140.0657906 33.8699989318848
390840.616573399 5819139.79328419 33.8699989318848
390840.170034713 5819139.59531051 33.8699989318848
390828.431167059 5819149.51147631 34.0800018310547
390815.735590359 5819148.44054135 34.0800018310547
390815.709586742 5819148.78393475 34.0800018310547
390815.571422806 5819150.61441544 34.0800018310547
390815.46984039 5819151.95016095 34.0800018310547
390815.007162722 5819158.06258558 34.0800018310547
390826.899202716 5819159.11312509 34.0800018310547
390827.700395885 5819159.183875 34.0800018310547
390827.677085156 5819159.18180761 33.7799987792969
390838.00914492 5819160.09418722 33.7799987792969
390840.99690062 5819160.35802303 33.7799987792969
390841.764506162 5819150.49435802 33.7799987792969
390842.463093696 5819141.51757095 33.7799987792969
390842.64181495 5819139.22101927 33.7799987792969
390839.65051531 5819139.00272295 33.7799987792969
390829.306200127 5819138.24782502 33.7799987792969
390816.577771464 5819137.31894142 33.7799987792969
390816.40383755 5819139.61584261 33.7799987792969
390815.723962829 5819148.59399582 33.7799987792969
390828.428891281 5819149.52116411 33.7799987792969
390838.009768153 5819160.09510972 62.97
390827.677697949 5819159.18271467 62.4813211653933
390828.429504075 5819149.52207117 62.4813211653933
390839.472417287 5819141.30019715 62.97
390838.773829742 5819150.27698428 62.97
390829.12810201 5819140.54529915 62.9663112147753
390816.404460692 5819139.61676499 62.9663112147753
390816.578267026 5819137.31967496 56.9908344201612
390829.306695696 5819138.24855855 56.9908344201612
390839.651010884 5819139.00345649 56.9908344201612
390842.642310525 5819139.2217528 56.9908344201612
390839.472417208 5819141.30019703 62.9663112147753
390839.472417287 5819141.30019715 62.97
390828.429504075 5819149.52207117 62.4813211653933
390815.724575615 5819148.59490288 62.4813211653933
390816.40446077 5819139.61676511 62.97
390829.128102089 5819140.54529927 62.97
390839.695902067 5819139.47788488 33.8699989318848
390839.20858174 5819139.44457522 33.8799989318848
390838.722880716 5819139.49639365 33.8699989318848
390838.253556773 5819139.63176567 33.8699989318848
390837.814870082 5819139.84657807 33.8699989318848
390837.420149917 5819140.13430389 33.8699989318848
390837.081389651 5819140.48620073 33.8699989318848
390836.808882343 5819140.89157639 33.8699989318848
390836.610907989 5819141.33811371 33.8699989318848
390836.493481942 5819141.8122449 33.8699989318848
390836.460172131 5819142.29956372 33.8699989318848
390836.511990658 5819142.78526323 33.8699989318848
390836.647363045 5819143.2545857 33.8699989318848
390836.86217607 5819143.693271 33.8699989318848
390837.149902746 5819144.0879899 33.8699989318848
390837.501800644 5819144.42674907 33.8699989318848
390837.907177524 5819144.69925547 33.8699989318848
390838.353716216 5819144.89722915 33.8699989318848
390838.827848866 5819145.01465478 33.8699989318848
390839.315169193 5819145.04796442 33.8699989318848
390839.800870216 5819144.99614599 33.8699989318848
390840.270194156 5819144.86077397 33.8699989318848
390840.708880841 5819144.64596157 33.8699989318848
390841.103600999 5819144.35823574 33.8699989318848
390841.442361258 5819144.0063389 33.8699989318848
390841.714868561 5819143.60096325 33.8699989318848
390841.912842909 5819143.15442593 33.8699989318848
390842.030268954 5819142.68029474 33.8699989318848
390842.063578764 5819142.19297593 33.8699989318848
390842.011760237 5819141.70727643 33.8699989318848
390841.876387854 5819141.23795396 33.8699989318848
390841.661574835 5819140.79926867 33.8699989318848
390841.373848165 5819140.40454977 33.8699989318848
390841.021950274 5819140.0657906 33.8699989318848
390840.616573399 5819139.79328419 33.8699989318848
390840.170034713 5819139.59531051 33.8699989318848
390828.431167059 5819149.51147631 34.0800018310547
390828.431339684 5819149.51173184 42.1651710445045
390815.735762982 5819148.44079687 42.1651710445045
390815.735590359 5819148.44054135 34.0800018310547
390827.700395885 5819159.183875 34.0800018310547
390827.70056851 5819159.18413052 42.1651710445045
390828.431339684 5819149.51173184 42.1651710445045
390828.431167059 5819149.51147631 34.0800018310547
390815.007162722 5819158.06258558 34.0800018310547
390815.007335345 5819158.0628411 42.1651710445045
390826.89937534 5819159.11338061 42.1651710445045
390826.899202716 5819159.11312509 34.0800018310547
390815.46984039 5819151.95016095 34.0800018310547
390815.470013012 5819151.95041647 42.1651710445045
390815.007335345 5819158.0628411 42.1651710445045
390815.007162722 5819158.06258558 34.0800018310547
390842.463589271 5819141.51830449 56.9908344201612
390842.642310525 5819139.2217528 56.9908344201612
390842.64181495 5819139.22101927 33.7799987792969
390842.463093696 5819141.51757095 33.7799987792969
390841.764506162 5819150.49435802 33.7799987792969
390840.99690062 5819160.35802303 33.7799987792969
390840.997396194 5819160.35875657 56.9908344201612
390841.765001736 5819150.49509156 56.9908344201612
390829.306695696 5819138.24855855 56.9908344201612
390816.578267026 5819137.31967496 56.9908344201612
390816.577771464 5819137.31894142 33.7799987792969
390829.306200127 5819138.24782502 33.7799987792969
390839.65051531 5819139.00272295 33.7799987792969
390842.64181495 5819139.22101927 33.7799987792969
390842.642310525 5819139.2217528 56.9908344201612
390839.651010884 5819139.00345649 56.9908344201612
390838.00914492 5819160.09418722 33.7799987792969
390838.009768074 5819160.09510961 62.9663112147753
390840.997396194 5819160.35875657 56.9908344201612
390840.99690062 5819160.35802303 33.7799987792969
390827.677085156 5819159.18180761 33.7799987792969
390827.677697949 5819159.18271467 62.4813211653933
390838.009768153 5819160.09510972 62.97
390838.009768074 5819160.09510961 62.9663112147753
390838.00914492 5819160.09418722 33.7799987792969
390816.40383755 5819139.61584261 33.7799987792969
390816.404460692 5819139.61676499 62.9663112147753
390816.40446077 5819139.61676511 62.97
390815.724575615 5819148.59490288 62.4813211653933
390815.723962829 5819148.59399582 33.7799987792969
390815.723962829 5819148.59399582 33.7799987792969
390815.724575615 5819148.59490288 62.4813211653933
390828.429504075 5819149.52207117 62.4813211653933
390828.428891281 5819149.52116411 33.7799987792969
36 0 1 2 3 4 5 6 7 8 9 10 11 12 13 14 15 16 17 18 19 20 21 22 23 24 25 26 27 28 29 30 31 32 33 34 35
8 36 37 38 39 40 41 42 43
7 44 45 46 47 48 49 50
4 76 25 24 77
3 120 123 124
3 125 130 131
3 132 135 136
8 100 101 102 103 104 105 106 107
12 108 109 110 111 112 113 114 115 116 117 118 119
4 75 26 25 76
4 74 27 26 75
4 73 28 27 74
4 72 29 28 73
4 71 30 29 72
4 70 31 30 71
4 69 32 31 70
4 68 33 32 69
4 67 34 33 68
4 66 35 34 67
4 65 0 35 66
33 137 141 142 143 144 145 146 147 148 149 150 151 152 153 154 155 156 157 158 159 160 161 162 163 164 165 166 167 168 169 170 171 172
3 173 175 176
4 106 39 38 107
3 177 179 180
3 181 183 184
4 103 42 41 104
4 102 43 42 103
4 101 36 43 102
3 185 187 188
3 189 195 196
3 197 203 204
4 119 53 52 108
3 205 207 208
3 209 212 213
3 214 217 218
4 116 58 57 117
4 64 1 0 65
4 99 2 1 64
4 98 3 2 99
4 97 4 3 98
4 96 5 4 97
4 95 6 5 96
4 94 7 6 95
4 93 8 7 94
4 92 9 8 93
4 91 10 9 92
4 90 11 10 91
4 89 12 11 90
4 88 13 12 89
4 87 14 13 88
4 86 15 14 87
4 85 16 15 86
4 84 17 16 85
4 83 18 17 84
4 82 19 18 83
4 81 20 19 82
4 80 21 20 81
4 79 22 21 80
4 78 23 22 79
4 77 24 23 78
3 120 121 122
3 120 122 123
3 125 126 127
3 125 127 128
3 125 128 129
3 125 129 130
3 132 133 134
3 132 134 135
3 137 138 139
3 137 139 140
3 137 140 141
3 173 174 175
3 177 178 179
3 181 182 183
3 185 186 187
3 189 190 191
3 189 191 192
3 189 192 193
3 189 193 194
3 189 194 195
3 197 198 199
3 197 199 200
3 197 200 201
3 197 201 202
3 197 202 203
3 205 206 207
3 209 210 211
3 209 211 212
3 214 215 216
3 214 216 217
3 219 220 221
3 219 221 222
