X Y Z
390827.677085156 5819159.18180761 33.7799987792969
390842.64181495 5819139.22101927 33.7809987792969
390839.65051531 5819139.00272295 33.7799987792969
390829.306200127 5819138.24782502 33.7799987792969
390816.577771464 5819137.31894142 33.7799987792969
390816.40383755 5819139.61584261 33.7799987792969
390815.723962829 5819148.59399582 33.7799987792969
390828.428891281 5819149.52116411 33.7799987792969
390827.677085156 5819159.18180761 33.7799987792969