X Y Z
390816.40383755 5819139.61584261 33.7799987792969
390816.404460692 5819139.61676499 62.9663112147753
390816.40446077 5819139.61676511 62.97
390815.724575615 5819148.59490288 62.4813211653933
390815.723962829 5819148.59399582 33.7799987792969
